<?xml version="1.0" encoding="UTF-8" standalone="no"?>
<svg
   xmlns:dc="http://purl.org/dc/elements/1.1/"
   xmlns:cc="http://creativecommons.org/ns#"
   xmlns:rdf="http://www.w3.org/1999/02/22-rdf-syntax-ns#"
   xmlns:svg="http://www.w3.org/2000/svg"
   xmlns="http://www.w3.org/2000/svg"
   xmlns:sodipodi="http://sodipodi.sourceforge.net/DTD/sodipodi-0.dtd"
   xmlns:inkscape="http://www.inkscape.org/namespaces/inkscape"
   width="192"
   height="192"
   viewBox="0 0 50.799999 50.799999"
   version="1.1"
   id="svg8"
   inkscape:version="1.0.1 (unknown)"
   sodipodi:docname="3_empty.svg"
   inkscape:export-filename="/home/hrq/.config/awesome/themes/dark/taglist/3_empty.png"
   inkscape:export-xdpi="96"
   inkscape:export-ydpi="96">
  <defs
     id="defs2">
    <linearGradient
       id="firefox-b"
       x1="44.017941"
       x2="75.088783"
       y1="144.35971"
       y2="73.385971"
       gradientTransform="scale(0.98864724,1.0114831)"
       gradientUnits="userSpaceOnUse">
      <stop
         offset="0%"
         stop-color="#FF837D"
         id="stop10" />
      <stop
         offset="100%"
         stop-color="#F8C18C"
         id="stop12" />
    </linearGradient>
    <path
       id="firefox-a"
       d="m 180.85648,81.906566 -3.11016,2.681417 c 0,-19.143407 -27.04096,-58.671854 -31.43882,-66.93896 -1.68953,2.45768 -3.39729,5.263416 -3.48586,8.267106 C 141.00482,23.0214 124.94671,10.560517 121.85269,0 112.2272,8.4430317 103.72622,32.361926 109.744,48.763614 c 6.01777,16.401689 19.30416,25.239218 19.40566,25.476354 22.12264,51.688172 -21.61222,69.707382 -45.775121,63.385052 -10.383055,-2.71678 -14.904898,-7.76453 -20.467849,-13.47452 9.749446,2.37635 16.921639,1.6572 24.379614,-0.85365 9.179713,-3.0905 9.944685,-8.54235 17.363836,-5.61924 2.78991,-0.38596 3.00365,-3.23229 2.06993,-5.78079 -1.34996,-1.89576 -3.39177,-3.61557 -6.01294,-5.13105 -5.720442,-3.01392 -12.06164,-1.17303 -22.336173,1.22237 -9.906975,2.30971 -27.820024,-12.752195 -18.247652,-23.400157 2.261011,0.65236 4.831486,1.602507 9.657585,3.021492 1.013429,-1.755591 1.941525,-8.304432 1.013429,-10.747096 4.533608,-4.359122 17.166963,-7.939883 17.459454,-9.625637 1.226212,-1.640346 4.201234,-9.511091 2.682531,-10.464649 -3.178025,0.175955 -24.956639,0 -22.38629,-9.848499 C 69.706188,43.62761 76.333493,34.714305 81.120219,31.444964 72.656136,29.44089 64.657636,33.062795 57.474735,38.251501 53.677979,36.882773 41.916634,35.11285 38.428428,36.882773 35.280484,35.662503 29.560917,31.191814 27.907219,20.106703 25.149761,22.649818 17.48786,29.796007 15.896925,50.359514 7.7023651,59.621415 2.0046937,78.62393 2.1959377,79.305043 L 6.6985598,71.660084 C 4.7539081,78.226253 1.2377426,96.103875 0.59651267,101.58683 L 3.8476611,94.152024 c 0,0 -1.2118642,20.149156 6.9307749,37.977216 8.142638,17.82806 23.385689,31.76512 34.365346,38.15623 7.891629,4.7167 25.098219,14.20313 43.109991,14.13782 18.011777,-0.0653 43.186767,-2.25833 52.294417,-17.30253 7.669,-4.51569 14.22939,-8.21329 19.04584,-12.68801 8.72866,-8.10934 10.52212,-16.18613 10.00889,-22.30351 7.87678,-15.40328 11.25356,-33.561215 11.25356,-50.222674 z m -19.29437,-9.451851 -0.0394,0.743548 0.0281,-0.749224 0.0112,0.0057 z" />
    <linearGradient
       id="firefox-d"
       x1="39.419472"
       x2="38.300323"
       y1="192.83958"
       y2="194.13196"
       gradientTransform="scale(1.6395728,0.60991498)"
       gradientUnits="userSpaceOnUse">
      <stop
         offset="0%"
         stop-color="#FF837D"
         id="stop16" />
      <stop
         offset="100%"
         stop-color="#FF837D"
         id="stop18" />
    </linearGradient>
    <filter
       id="filter11290"
       x="-.024"
       y="-.024"
       width="1.048"
       height="1.048"
       color-interpolation-filters="sRGB">
      <feGaussianBlur
         stdDeviation="0.15875313"
         id="feGaussianBlur1450" />
    </filter>
  </defs>
  <sodipodi:namedview
     id="base"
     pagecolor="#ffffff"
     bordercolor="#666666"
     borderopacity="1.0"
     inkscape:pageopacity="0.0"
     inkscape:pageshadow="2"
     inkscape:zoom="2.8"
     inkscape:cx="142.23623"
     inkscape:cy="88.528696"
     inkscape:document-units="mm"
     inkscape:current-layer="layer1"
     inkscape:document-rotation="0"
     showgrid="false"
     inkscape:window-width="1850"
     inkscape:window-height="1025"
     inkscape:window-x="60"
     inkscape:window-y="10"
     inkscape:window-maximized="0"
     units="px" />
  <metadata
     id="metadata5">
    <rdf:RDF>
      <cc:Work
         rdf:about="">
        <dc:format>image/svg+xml</dc:format>
        <dc:type
           rdf:resource="http://purl.org/dc/dcmitype/StillImage" />
        <dc:title></dc:title>
      </cc:Work>
    </rdf:RDF>
  </metadata>
  <g
     inkscape:label="Layer 1"
     inkscape:groupmode="layer"
     id="layer1">
    <g
       id="g1554"
       style="opacity:0.7">
      <g
         id="g1502"
         transform="matrix(1.8766639,0,0,1.8766639,9.4601801,9.5234237)">
        <circle
           cx="8.4937"
           cy="8.46"
           r="7.9376998"
           filter="url(#filter11290)"
           opacity="0.25"
           stroke-width="0.14032"
           id="circle1457" />
        <path
           d="m 16.439,8.46 c 0,0.95154 -0.16749,1.8639 -0.47464,2.7094 -0.21351,0.58768 -0.49439,1.1433 -0.83393,1.6572 -0.14222,0.21608 -0.29514,0.42475 -0.45746,0.62529 -0.51966,0.64179 -1.1372,1.2007 -1.8305,1.6543 -0.2553,0.16718 -0.52065,0.3201 -0.79536,0.45712 -1.0668,0.53389 -2.2711,0.83421 -3.5456,0.83421 -1.2745,0 -2.4788,-0.30032 -3.5456,-0.83424 -0.27474,-0.13705 -0.5404,-0.28997 -0.7957,-0.45712 -0.70207,-0.45973 -1.327,-1.0274 -1.8509,-1.6798 -0.16263,-0.20216 -0.31524,-0.41275 -0.45746,-0.63078 -0.33046,-0.5054 -0.60421,-1.0507 -0.8135,-1.627 -0.30711,-0.84529 -0.4743,-1.7573 -0.4743,-2.7085 0,-4.3838 3.5537,-7.9375 7.9375,-7.9375 2.2005,0 4.1917,0.89548 5.6295,2.3417 0.41436,0.41662 0.78274,0.87929 1.0963,1.3795 0.29645,0.47107 0.54428,0.97582 0.73704,1.5068 0.30718,0.84559 0.47467,1.7579 0.47467,2.7094 z"
           fill="#148c64"
           stroke-width="0.031006"
           id="path1459"
           style="fill:#309c8a;fill-opacity:1" />
        <g
           stroke-width="0.031006"
           id="g1469">
          <path
             d="m 7.6223,6.3531 c 0.26295,0 0.51363,-0.076548 0.72603,-0.2129 1.095e-4,-7.04e-5 -1.095e-4,-4.498e-4 0,-5.292e-4 -0.21241,0.13636 -0.46312,0.21342 -0.72603,0.21342 z"
             fill="#ffd241"
             id="path1461" />
          <path
             d="M 14.552,5.0953 11.4122,1.955 v 2.6184 h -5.29e-4 c 0,0.1441 0.05847,0.27448 0.15296,0.36896 0.09449,0.094481 0.22538,0.15296 0.36949,0.15296 h 2.6179 z"
             fill="#fafafa"
             opacity="0.6"
             id="path1463" />
          <path
             d="m 2.9728,1.9528 c -0.28821,0 -0.52194,0.23427 -0.52194,0.52244 v 9.732 c 1.2697,2.001 3.5046,3.3295 6.0502,3.3295 2.5456,0 4.781,-1.3285 6.0507,-3.3295 v -7.1122 h -2.6179 c -0.1441,0 -0.275,-0.05848 -0.36949,-0.15296 C 11.46988,4.847598 11.41141,4.71722 11.41141,4.57312 h 5.29e-4 v -2.6184 l 3.1398,3.1403 V 5.09296 l -3.1403,-3.1403 h -8.4388 z m 0.68005,1.5508 h 4.3515 C 8.00194,3.543732 7.99931,3.576111 7.9966,3.61677 H 3.6609 C 3.658,3.579131 3.65525,3.541391 3.65263,3.5036 Z m 0,0.84904 h 4.3515 C 8.00194,4.392774 7.99931,4.425151 7.9966,4.46581 H 3.6609 C 3.658,4.428171 3.65525,4.390434 3.65263,4.35264 Z m 0,0.84904 h 4.3515 C 8.00194,5.241814 7.99931,5.274191 7.9966,5.31485 H 3.6609 C 3.658,5.277211 3.65525,5.239474 3.65263,5.20168 Z m 0,0.84904 h 4.3515 C 8.00194,6.090854 7.99931,6.123231 7.9966,6.16389 H 3.6609 C 3.658,6.126251 3.65525,6.088514 3.65263,6.05072 Z"
             fill="#fafafa"
             id="path1465" />
          <path
             d="M 15.964,9.4804 H 1.038 v 1.6801 c 0.20929,0.57631 0.48291,1.1219 0.81337,1.6273 0.14222,0.21803 0.29469,0.42828 0.45733,0.63044 0.52389,0.6524 1.1489,1.2202 1.851,1.68 0.2553,0.16715 0.52106,0.32027 0.7958,0.45733 1.0668,0.53392 2.271,0.83404 3.5454,0.83404 1.2745,0 2.4787,-0.30017 3.5454,-0.83404 0.27471,-0.13702 0.53998,-0.29014 0.7953,-0.45733 0.69331,-0.4536 1.3112,-1.0123 1.8309,-1.6542 0.16232,-0.20054 0.31512,-0.4092 0.45733,-0.62528 0.33954,-0.51389 0.62055,-1.0696 0.83404,-1.6572 z"
             fill="#14b478"
             id="path1467"
             style="fill:#63cfbd;fill-opacity:1" />
        </g>
        <path
           d="M 15.964,6.5954 V 9.9423 H 1.038 V 9.11612 c 0,-0.75555 0.61224,-1.3678 1.3678,-1.3678 H 7.622 c 0.52589,0 1.0031,-0.30649 1.2221,-0.78436 L 9.20371,6.17927 C 9.36655,5.82413 9.72135,5.59648 10.11181,5.59648 h 4.8532 c 0.55159,0 0.99895,0.44738 0.99895,0.99898 z"
           fill="#14b478"
           stroke-width="0.031006"
           id="path1471"
           style="fill:#63cfbd;fill-opacity:1" />
        <g
           fill="#5e4aa6"
           stroke-width="0.26458"
           id="g1481">
          <circle
             cx="-330.35001"
             cy="-328.38"
             r="0"
             id="circle1473" />
          <circle
             cx="-312.10999"
             cy="-326.25"
             r="0"
             id="circle1475" />
          <circle
             cx="-306.01999"
             cy="-333.07001"
             r="0"
             id="circle1477" />
          <circle
             cx="-308.84"
             cy="-326.01001"
             r="0"
             id="circle1479" />
        </g>
      </g>
    </g>
  </g>
</svg>
